{
    "name": "TransweaponConsortium",
    "version": "1.0.0",
    "channels": {
        "purchaseweaponchannel": {
            "orderers": [
                "orderer.bhupurchasingweapon.com"
            ],
            "peers": {
                "bhutangov.bhupurchasingweapon.com": {},
                "russiagov.ruspurchasingweapon.com": {},
                "usagov.usapurchasingweapon.com": {}
            }
        }
    },
    "organizations": {
        "Bhutan": {
            "mspid": "BhutanMSP",
            "peers": [
                "bhutangov.bhupurchasingweapon.com"
            ]
        },
        "Russia": {
            "mspid": "RussiaMSP",
            "peers": [
                "russiagov.ruspurchasingweapon.com"
            ]
        },
        "Usa": {
            "mspid": "UsaMSP",
            "peers": [
                "usagov.usapurchasingweapon.com"
            ]
        }
    },
    "orderers": {
        "orderer.bhupurchasingweapon.com": {
            "url": "grpc://orderer.bhupurchasingweapon.com:7050",
            "grpcOptions": {
                "ssl-target-name-override": "orderer.bhupurchasingweapon.com"
            }
        }
    },
    "peers": {
        "bhutangov.bhupurchasingweapon.com": {
            "url": "grpc://bhutangov.bhupurchasingweapon.com:7051"
        },
        "russiagov.ruspurchasingweapon.com": {
            "url": "grpc://russiagov.ruspurchasingweapon.com:7054"
        },
        "usagov.usapurchasingweapon.com": {
            "url": "grpc://usagov.usapurchasingweapon.com:7053"
        }
    }
}